﻿<?xml version="1.0" encoding="UTF-8"?>
<TestRun id="4e3dc385-8694-4187-9eb3-ba0a8c98ce66" name="pc@REINALDO-PC 2014-08-14 02:50:44" runUser="REINALDO-PC\pc" xmlns="http://microsoft.com/schemas/VisualStudio/TeamTest/2010">
  <TestSettings name="Local" id="2c038eb7-ee37-4e4c-aa7c-1fbb27ac116d">
    <Description>Esta es la configuración de pruebas predeterminada para una ejecución de pruebas local.</Description>
    <Deployment enabled="false" runDeploymentRoot="pc_REINALDO-PC 2014-08-14 02_50_44">
      <DeploymentItem filename="C:\Emgu\bin\ThomsonReutersSpottedCatCallengeRY.exe" />
      <DeploymentItem filename="C:\Emgu\bin\Emgu.Util.dll" />
      <DeploymentItem filename="C:\Emgu\bin\Emgu.CV.UI.dll" />
      <DeploymentItem filename="C:\Emgu\bin\Emgu.CV.dll" />
    </Deployment>
    <Execution>
      <TestTypeSpecific />
      <AgentRule name="Execution Agents">
      </AgentRule>
    </Execution>
  </TestSettings>
  <Times creation="2014-08-14T02:50:44.6978455-03:00" queuing="2014-08-14T02:50:44.8668552-03:00" start="2014-08-14T02:50:44.8928567-03:00" finish="2014-08-14T02:50:46.2929368-03:00" />
  <ResultSummary outcome="Failed">
    <Counters total="4" executed="4" passed="2" error="0" failed="2" timeout="0" aborted="0" inconclusive="0" passedButRunAborted="0" notRunnable="0" notExecuted="0" disconnected="0" warning="0" completed="0" inProgress="0" pending="0" />
  </ResultSummary>
  <TestDefinitions>
    <UnitTest name="ImageIsSpottedCatTest1" storage="c:\emgu\emgu.cv.example\surffeature\testspottedcatprj\bin\debug\testspottedcatprj.dll" id="e476083b-116a-c4c7-13a5-a3b6998c75dd">
      <Execution id="8993e1a6-c2f5-49b1-a13f-00d16797ec56" />
      <TestMethod codeBase="C:/Emgu/Emgu.CV.Example/SURFFeature/TestSpottedCatPrj/bin/Debug/TestSpottedCatPrj.DLL" adapterTypeName="Microsoft.VisualStudio.TestTools.TestTypes.Unit.UnitTestAdapter, Microsoft.VisualStudio.QualityTools.Tips.UnitTest.Adapter, Version=10.0.0.0, Culture=neutral, PublicKeyToken=b03f5f7f11d50a3a" className="TestSpottedCatPrj.SpottedCatDetectorTest, TestSpottedCatPrj, Version=1.0.0.0, Culture=neutral, PublicKeyToken=null" name="ImageIsSpottedCatTest1" />
    </UnitTest>
    <UnitTest name="IsDiagnoseModeTest" storage="c:\emgu\emgu.cv.example\surffeature\testspottedcatprj\bin\debug\testspottedcatprj.dll" id="9c4d58b0-6c8b-6e9c-c29a-fed86e3b9c8d">
      <Execution id="54b22475-9412-4ecf-967d-3bec79d06d7c" />
      <TestMethod codeBase="C:/Emgu/Emgu.CV.Example/SURFFeature/TestSpottedCatPrj/bin/Debug/TestSpottedCatPrj.DLL" adapterTypeName="Microsoft.VisualStudio.TestTools.TestTypes.Unit.UnitTestAdapter, Microsoft.VisualStudio.QualityTools.Tips.UnitTest.Adapter, Version=10.0.0.0, Culture=neutral, PublicKeyToken=b03f5f7f11d50a3a" className="TestSpottedCatPrj.SpottedCatDetectorTest, TestSpottedCatPrj, Version=1.0.0.0, Culture=neutral, PublicKeyToken=null" name="IsDiagnoseModeTest" />
    </UnitTest>
    <UnitTest name="DiagnoseModeResultImgTest" storage="c:\emgu\emgu.cv.example\surffeature\testspottedcatprj\bin\debug\testspottedcatprj.dll" id="5ae6c0fb-7a4c-eb45-458e-7c9ce23cc394">
      <Execution id="d1b06cb7-ac1c-4091-8175-788c16d6f420" />
      <TestMethod codeBase="C:/Emgu/Emgu.CV.Example/SURFFeature/TestSpottedCatPrj/bin/Debug/TestSpottedCatPrj.DLL" adapterTypeName="Microsoft.VisualStudio.TestTools.TestTypes.Unit.UnitTestAdapter, Microsoft.VisualStudio.QualityTools.Tips.UnitTest.Adapter, Version=10.0.0.0, Culture=neutral, PublicKeyToken=b03f5f7f11d50a3a" className="TestSpottedCatPrj.SpottedCatDetectorTest, TestSpottedCatPrj, Version=1.0.0.0, Culture=neutral, PublicKeyToken=null" name="DiagnoseModeResultImgTest" />
    </UnitTest>
    <UnitTest name="MatchedFeaturesTest" storage="c:\emgu\emgu.cv.example\surffeature\testspottedcatprj\bin\debug\testspottedcatprj.dll" id="90b4353d-2d28-4a41-745a-ca4cbd376dad">
      <Execution id="036b6806-0c75-45a6-90dd-77d120ac0346" />
      <TestMethod codeBase="C:/Emgu/Emgu.CV.Example/SURFFeature/TestSpottedCatPrj/bin/Debug/TestSpottedCatPrj.DLL" adapterTypeName="Microsoft.VisualStudio.TestTools.TestTypes.Unit.UnitTestAdapter, Microsoft.VisualStudio.QualityTools.Tips.UnitTest.Adapter, Version=10.0.0.0, Culture=neutral, PublicKeyToken=b03f5f7f11d50a3a" className="TestSpottedCatPrj.SpottedCatDetectorTest, TestSpottedCatPrj, Version=1.0.0.0, Culture=neutral, PublicKeyToken=null" name="MatchedFeaturesTest" />
    </UnitTest>
  </TestDefinitions>
  <TestLists>
    <TestList name="Resultados que no están en la lista" id="8c84fa94-04c1-424b-9868-57a2d4851a1d" />
    <TestList name="Todos los resultados cargados" id="19431567-8539-422a-85d7-44ee4e166bda" />
  </TestLists>
  <TestEntries>
    <TestEntry testId="5ae6c0fb-7a4c-eb45-458e-7c9ce23cc394" executionId="d1b06cb7-ac1c-4091-8175-788c16d6f420" testListId="8c84fa94-04c1-424b-9868-57a2d4851a1d" />
    <TestEntry testId="90b4353d-2d28-4a41-745a-ca4cbd376dad" executionId="036b6806-0c75-45a6-90dd-77d120ac0346" testListId="8c84fa94-04c1-424b-9868-57a2d4851a1d" />
    <TestEntry testId="9c4d58b0-6c8b-6e9c-c29a-fed86e3b9c8d" executionId="54b22475-9412-4ecf-967d-3bec79d06d7c" testListId="8c84fa94-04c1-424b-9868-57a2d4851a1d" />
    <TestEntry testId="e476083b-116a-c4c7-13a5-a3b6998c75dd" executionId="8993e1a6-c2f5-49b1-a13f-00d16797ec56" testListId="8c84fa94-04c1-424b-9868-57a2d4851a1d" />
  </TestEntries>
  <Results>
    <UnitTestResult executionId="d1b06cb7-ac1c-4091-8175-788c16d6f420" testId="5ae6c0fb-7a4c-eb45-458e-7c9ce23cc394" testName="DiagnoseModeResultImgTest" computerName="REINALDO-PC" duration="00:00:00.4399111" startTime="2014-08-14T02:50:44.9008571-03:00" endTime="2014-08-14T02:50:45.6218984-03:00" testType="13cdc9d9-ddb5-4fa4-a97d-d965ccfc6d4b" outcome="Passed" testListId="8c84fa94-04c1-424b-9868-57a2d4851a1d" relativeResultsDirectory="d1b06cb7-ac1c-4091-8175-788c16d6f420">
    </UnitTestResult>
    <UnitTestResult executionId="036b6806-0c75-45a6-90dd-77d120ac0346" testId="90b4353d-2d28-4a41-745a-ca4cbd376dad" testName="MatchedFeaturesTest" computerName="REINALDO-PC" duration="00:00:00.3455077" startTime="2014-08-14T02:50:45.6258986-03:00" endTime="2014-08-14T02:50:45.9759186-03:00" testType="13cdc9d9-ddb5-4fa4-a97d-d965ccfc6d4b" outcome="Failed" testListId="8c84fa94-04c1-424b-9868-57a2d4851a1d" relativeResultsDirectory="036b6806-0c75-45a6-90dd-77d120ac0346">
      <Output>
        <ErrorInfo>
          <Message>Assert.AreEqual failed. Expected:&lt;12&gt;. Actual:&lt;6&gt;. Expected to find 12 features in image </Message>
          <StackTrace>   at TestSpottedCatPrj.SpottedCatDetectorTest.MatchedFeaturesTest() in C:\Emgu\Emgu.CV.Example\SURFFeature\TestSpottedCatPrj\SpottedCatDetectorTest.cs:line 134
</StackTrace>
        </ErrorInfo>
      </Output>
    </UnitTestResult>
    <UnitTestResult executionId="54b22475-9412-4ecf-967d-3bec79d06d7c" testId="9c4d58b0-6c8b-6e9c-c29a-fed86e3b9c8d" testName="IsDiagnoseModeTest" computerName="REINALDO-PC" duration="00:00:00.0062965" startTime="2014-08-14T02:50:45.9799189-03:00" endTime="2014-08-14T02:50:45.9909195-03:00" testType="13cdc9d9-ddb5-4fa4-a97d-d965ccfc6d4b" outcome="Passed" testListId="8c84fa94-04c1-424b-9868-57a2d4851a1d" relativeResultsDirectory="54b22475-9412-4ecf-967d-3bec79d06d7c">
    </UnitTestResult>
    <UnitTestResult executionId="8993e1a6-c2f5-49b1-a13f-00d16797ec56" testId="e476083b-116a-c4c7-13a5-a3b6998c75dd" testName="ImageIsSpottedCatTest1" computerName="REINALDO-PC" duration="00:00:00.2320316" startTime="2014-08-14T02:50:45.9949197-03:00" endTime="2014-08-14T02:50:46.2299332-03:00" testType="13cdc9d9-ddb5-4fa4-a97d-d965ccfc6d4b" outcome="Failed" testListId="8c84fa94-04c1-424b-9868-57a2d4851a1d" relativeResultsDirectory="8993e1a6-c2f5-49b1-a13f-00d16797ec56">
      <Output>
        <ErrorInfo>
          <Message>Assert.IsTrue failed. 107210424230124423214414482195189135250_2.jpg is NOT a spotted cat, thus expected &lt; 0.8</Message>
          <StackTrace>   at TestSpottedCatPrj.SpottedCatDetectorTest.ImageIsSpottedCatTest1() in C:\Emgu\Emgu.CV.Example\SURFFeature\TestSpottedCatPrj\SpottedCatDetectorTest.cs:line 172
</StackTrace>
        </ErrorInfo>
      </Output>
    </UnitTestResult>
  </Results>
</TestRun>